# get_facilities_wmap() works

    Code
      get_facilities_wmap(facilities)
    Output
      # A tibble: 97,383 x 5
         country       num  long   lat group
         <chr>       <dbl> <dbl> <dbl> <dbl>
       1 Afghanistan  1.64  74.9  37.2     2
       2 Afghanistan  1.64  74.8  37.2     2
       3 Afghanistan  1.64  74.8  37.2     2
       4 Afghanistan  1.64  74.7  37.3     2
       5 Afghanistan  1.64  74.7  37.3     2
       6 Afghanistan  1.64  74.7  37.3     2
       7 Afghanistan  1.64  74.6  37.2     2
       8 Afghanistan  1.64  74.4  37.2     2
       9 Afghanistan  1.64  74.4  37.1     2
      10 Afghanistan  1.64  74.5  37.1     2
      # i 97,373 more rows
